category,start,end,label,id,gp,group
activityprior,448480011,448480011,Adjusting Machine or Work,448480011,,
activityprior,448480007,448480007,Ascending/Descending,448480007,,
activityprior,448480004,448480004,Carrying,448480004,,
activityprior,448480002,448480002,Children Playing,448480002,,
activityprior,448480012,448480012,Clearing Jam or Blockage,448480012,,
activityprior,448480008,448480008,"Driving, Riding",448480008,,
activityprior,448480016,448480016,"Eating, Drinking",448480016,,
activityprior,448480019,448480019,Employment Tasks NEC,448480019,,
activityprior,448480015,448480015,Fighting,448480015,,
activityprior,448480005,448480005,"Getting On or Off, In or Out of",448480005,,
activityprior,448480003,448480003,"Lifting/Lowering, Loading/Unloading",448480003,,
activityprior,448480014,448480014,Operating Machine,448480014,,
activityprior,448480017,448480017,Preparing Food or Drink,448480017,,
activityprior,448480018,448480018,Receiving Medical Treatment,448480018,,
activityprior,448480001,448480001,Recreation or Sporting Activity,448480001,,
activityprior,448480010,448480010,"Supervising, Testing, Inspection",448480010,,
activityprior,448480009,448480009,Travelling as Passenger,448480009,,
activityprior,448480013,448480013,"Using, Operating (Not Machine)",448480013,,
activityprior,448480006,448480006,Walking/Running,448480006,,
activityprior,448480998,448480998,Other,448480998,,
activityprior,448480999,448480999,Unknown,448480999,,
affroad,448352002,448352002,Car,448352002,,
affroad,448352003,448352003,Motorcycle,448352003,,
affroad,448352004,448352004,ATV,448352004,,
affroad,448352005,448352005,Bus,448352005,,
affroad,448352006,448352006,Truck,448352006,,
affroad,448352007,448352007,Other Vehicle,448352007,,
affroad,448352008,448352008,Cycling,448352008,,
affroad,448352009,448352009,Pedestrian,448352009,,
affroad,448352998,448352998,Other,448352998,,
affroad,448352999,448352999,Unknown,448352999,,
agegrp,01,01,0-4,01,,
agegrp,02,02,5-9,02,,
agegrp,03,03,10-14,03,,
agegrp,04,04,15-19,04,,
agegrp,05,05,20-24,05,,
agegrp,06,06,25-29,06,,
agegrp,07,07,30-34,07,,
agegrp,08,08,35-39,08,,
agegrp,09,09,40-44,09,,
agegrp,10,10,45-49,10,,
agegrp,11,11,50-54,11,,
agegrp,12,12,55-59,12,,
agegrp,13,13,60-64,13,,
agegrp,14,14,65-69,14,,
agegrp,15,15,70-74,15,,
agegrp,16,16,75-79,16,,
agegrp,17,17,80-84,17,,
agegrp,18,18,85+,18,,
agegrp,99,99,Unknown,99,,
bodysite,70784001,70784001,Abdomen/pelvis,70784001,,
bodysite,70784002,70784002,Ankle,70784002,,
bodysite,70784003,70784003,Back Except Head Vertebrae,70784003,70784003,Back/Spine
bodysite,70784018,70784018,Lower Back/spine,70784018,70784003,Back/Spine
bodysite,70784029,70784029,Upper Back/spine,70784029,70784003,Back/Spine
bodysite,70784004,70784004,Chest,70784004,,
bodysite,70784005,70784005,Ear,70784005,,
bodysite,70784006,70784006,Elbow,70784006,,
bodysite,70784007,70784007,Eye,70784007,,
bodysite,70784008,70784008,Face,70784008,,
bodysite,70784009,70784009,Finger/thumb,70784009,,
bodysite,70784010,70784010,Foot,70784010,,
bodysite,70784011,70784011,Hand/wrist,70784011,,
bodysite,70784012,70784012,Head (except Face),70784012,,
bodysite,70784014,70784014,"Hip, Upper Leg, Thigh",70784014,,
bodysite,70784013,70784013,Heart,70784013,70784013,Internal Organ
bodysite,70784015,70784015,Internal Organ,70784015,70784013,Internal Organ
bodysite,70784016,70784016,Kidney,70784016,70784013,Internal Organ
bodysite,70784020,70784020,Lung,70784020,70784013,Internal Organ
bodysite,70784024,70784024,Other Internal Organ,70784024,70784013,Internal Organ
bodysite,70784017,70784017,Knee,70784017,,
bodysite,70784019,70784019,Lower Leg,70784019,,
bodysite,70784021,70784021,Multiple Locations,70784021,,
bodysite,70784022,70784022,"Neck, Back Of Head Vertebrae",70784022,,
bodysite,70784023,70784023,Nose,70784023,,
bodysite,70784025,70784025,Shoulder (incl Clavicle/blade),70784025,,
bodysite,70784026,70784026,Toes,70784026,,
bodysite,70784028,70784028,Upper And Lower Arm,70784028,,
bodysite,70784999,70784999,Unknown,70784999,,
cause,68896022,68896022,Boiling(Violent & Inadvertent),68896022,,
cause,68896033,68896033,Bursting/Breakage/Distortion,68896033,,
cause,68896024,68896024,Collapse of Stack/Bulk Goods,68896024,,
cause,68896030,68896030,Collapse/Ovrturning/Inundatn,68896030,,
cause,68896026,68896026,Collision/Knocked Over by Obj,68896026,,
cause,68896037,68896037,Criminal Act,68896037,,
cause,68896016,68896016,Driving into Hole/Object etc,68896016,68896016,Driving Related
cause,68896017,68896017,Loss of Control of Vehicle,68896017,68896016,Driving Related
cause,68896006,68896006,Lurching/Jerks in Vehicles etc,68896006,68896016,Driving Related
cause,68896014,68896014,Swerving/Evasive Action,68896014,68896016,Driving Related
cause,68896021,68896021,Electrical Shock/Short Circuit,68896021,,
cause,68896034,68896034,Inadvertent Machine/Veh Mov't,68896034,68896034,Equipment Related
cause,68896013,68896013,Mechanical Malfunction,68896013,68896034,Equipment Related
cause,68896009,68896009,Struck by Held Tool/Implement,68896009,68896034,Equipment Related
cause,68896019,68896019,Explosion/Blasting/Implosion,68896019,,
cause,68896032,68896032,Exposure to Elements,68896032,,
cause,68896011,68896011,Loss Balance/Personal Contrl,68896011,68896011,Falls
cause,68896004,68896004,Loss of Consciousness/Sleep,68896004,68896011,Falls
cause,68896007,68896007,Misjudgement of Support,68896007,68896011,Falls
cause,68896001,68896001,"Slipping, Skidding on Foot",68896001,68896011,Falls
cause,68896005,68896005,Something Giving way Underfoot,68896005,68896011,Falls
cause,68896002,68896002,Tripping or Stumbling,68896002,68896011,Falls
cause,68896018,68896018,Fire,68896018,,
cause,68896029,68896029,Flooding/Overflow of Liquid,68896029,,
cause,68896028,68896028,Folding/Collapse,68896028,,
cause,68896035,68896035,Lifting/Carrying/Strain,68896035,,
cause,68896008,68896008,Loss of Hold,68896008,,
cause,68896036,68896036,Medical Treatment,68896036,,
cause,68896025,68896025,Object Coming Loose/Shifting,68896025,,
cause,68896040,68896040,Oral Ingestion of Fungi,68896040,,
cause,68912000,68912000,Placeholder - 68912000 for todomain 2153,68912000,,
cause,68896012,68896012,Puncture,68896012,,
cause,68896003,68896003,Pushed or Pulled,68896003,,
cause,68896027,68896027,Recoil/Ejection,68896027,,
cause,68896020,68896020,Shooting,68896020,,
cause,68896015,68896015,Skid,68896015,,
cause,68896010,68896010,Struck by Person/Animal,68896010,,
cause,68896041,68896041,Twisting Movement,68896041,,
cause,68896023,68896023,Unclear Fire or Explosion,68896023,,
cause,68896031,68896031,Wk Property or Characteristics,68896031,,
cause,68896998,68896998,Other or Unclear Cause,68896998,,
cause,68896999,68896999,Unknown,68896999,,
contact,448096023,448096023,Caused Own Injury Without Tool,448096023,,
contact,448096013,448096013,Collision,448096013,,
contact,448096022,448096022,Contact While Handlng/Carryng,448096022,,
contact,448096020,448096020,Contact Wth Obj Carried/Handld,448096020,,
contact,448096009,448096009,Contact with Moving Object,448096009,,
contact,448096021,448096021,Dropped Object Carried/Handled,448096021,,
contact,448096014,448096014,Drove Into Obj/Ditch/Falling,448096014,,
contact,448096028,448096028,Drowning,448096028,,
contact,448096026,448096026,Environmental Elements,448096026,,
contact,448096025,448096025,Exposed to Flame/Noise/Elect,448096025,,
contact,448096006,448096006,Falling Objects Not Handled,448096006,,
contact,448096010,448096010,Fight/Struggle with Person,448096010,,
contact,448096007,448096007,Flowing Liquid/Gas/Jet,448096007,,
contact,448096005,448096005,Flying Obj/Spatter/Fragments,448096005,,
contact,448096016,448096016,Hit Veh/Grnd while in Vehicle,448096016,,
contact,448096003,448096003,Impact/Contact with Object,448096003,,
contact,448096002,448096002,Impact/Contct wth Ground/Floor,448096002,,
contact,448096024,448096024,Inhald/Swallowd Substance/Obj,448096024,,
contact,448096012,448096012,Kicked/Butted/Bittn by Animal,448096012,,
contact,448096004,448096004,"Liq, Powder at Rest",448096004,,
contact,448096027,448096027,Medical Treatment,448096027,,
contact,448096011,448096011,Other Contact with Person,448096011,,
contact,448096008,448096008,Other Moving Object/Part Etc,448096008,,
contact,448096019,448096019,Repetitive Movement,448096019,,
contact,448096001,448096001,Step on Sharp Object,448096001,,
contact,448096017,448096017,Strenuous Movmnt with Lifting,448096017,,
contact,448096018,448096018,Strnuous Movmnt wthout Lifting,448096018,,
contact,448096015,448096015,Turning Over/Capsizing,448096015,,
contact,448096031,448096031,Witnessed,448096031,,
contact,448096998,448096998,Other or Unclear Contact,448096998,,
contact,448096999,448096999,Unknown,448096999,,
diagnosis,01,01,Amputation / Enucleation,01,,
diagnosis,46,46,Amputation / Enucleation,01,,
diagnosis,28,28,Ante Natal Injuries,28,,
diagnosis,02,02,Burn,02,02,Burns
diagnosis,45,45,Burns (not stated),45,02,Burns
diagnosis,18,18,Scald,18,02,Burns
diagnosis,33,33,Concussion / Brain Injury,33,,
diagnosis,62,62,Concussion / Brain Injury,33,,
diagnosis,04,04,Corrosive Injuries,04,,
diagnosis,31,31,Industrial Deafness,31,31,Deafness
diagnosis,05,05,Trauma Induced Hearing Loss,05,31,Deafness
diagnosis,47,47,Trauma Induced Hearing Loss,05,31,Deafness
diagnosis,06,06,Dental Injuries,06,,
diagnosis,49,49,Dental Injuries,06,,
diagnosis,32,32,Foreign Body In Orifice / Eye,32,,
diagnosis,44,44,Foreign Body In Orifice / Eye,32,,
diagnosis,07,07,Dislocation,07,07,Fracture / Dislocation
diagnosis,08,08,Fracture,08,07,Fracture / Dislocation
diagnosis,43,43,Fracture / Dislocation (not stated),43,07,Fracture / Dislocation
diagnosis,91,91,Gradual Process: Compression Syndrome,91,91,Gradual Onset
diagnosis,90,90,Gradual Process: Localised Inflammation,90,91,Gradual Onset
diagnosis,26,26,Occupational Overuse Syndrome,26,91,Gradual Onset
diagnosis,92,92,Pain Syndrome,92,91,Gradual Onset
diagnosis,09,09,Hernia,09,,
diagnosis,48,48,Hernia,09,,
diagnosis,60,60,Inhalation / Ingestion Specific Occasion,60,,
diagnosis,20,20,Inhalation Diseases-Asbestos / Lead,20,,
diagnosis,41,41,"Laceration, Puncture Wound, Sting (not stated)",41,41,"Laceration, Puncture Wound, Sting"
diagnosis,14,14,Laceration: Infected,14,41,"Laceration, Puncture Wound, Sting"
diagnosis,13,13,Laceration: Not Infected,13,41,"Laceration, Puncture Wound, Sting"
diagnosis,36,36,Puncture Wound,36,41,"Laceration, Puncture Wound, Sting"
diagnosis,30,30,Mental Injury / Nervous Shock,30,,
diagnosis,34,34,Mental Injury / Nervous Shock,30,,
diagnosis,35,35,Mental Injury / Nervous Shock,30,,
diagnosis,22,22,Non-Occupational Dermatitis,22,22,Non-Occupational Disease / Infection
diagnosis,40,40,Non-Occupational Disease / Infection (not stated),40,22,Non-Occupational Disease / Infection
diagnosis,23,23,Non-Occupational Hepatitis,23,22,Non-Occupational Disease / Infection
diagnosis,25,25,"Other Non-Occupational Gradual Process, Disease / Infection",25,22,Non-Occupational Disease / Infection
diagnosis,21,21,Brucellosis,21,21,Occupational Disease / Infection
diagnosis,24,24,Leptospirosis,24,21,Occupational Disease / Infection
diagnosis,93,93,Occupational Asthma,93,21,Occupational Disease / Infection
diagnosis,w2,w2,Occupational Dermatitis,w2,21,Occupational Disease / Infection
diagnosis,61,61,Occupational Disease (not stated),61,21,Occupational Disease / Infection
diagnosis,w3,w3,Occupational Hepatitis,w3,21,Occupational Disease / Infection
diagnosis,w5,w5,"Other Occupational Gradual Process, Disease / Infection",w5,21,Occupational Disease / Infection
diagnosis,29,29,Self Administered Drugs/ Treatment,29,,
diagnosis,03,03,Contusion (Intact Skin) Including Crushing,03,03,Soft Tissue Injury
diagnosis,19,19,Heart Attack or Stroke,19,03,Soft Tissue Injury
diagnosis,10,10,Injury-Internal Organ,10,03,Soft Tissue Injury
diagnosis,42,42,Soft Tissue Injury (not stated),42,03,Soft Tissue Injury
diagnosis,12,12,Sprain or Strain,12,03,Soft Tissue Injury
diagnosis,11,11,Toxic / Adverse Effect,11,,
diagnosis,98,98,Other,98,,
diagnosis,99,99,Unknown,99,,
duration,1,1,0 - <12 weeks,1,,
duration,2,2,12 - <26 weeks,2,,
duration,3,3,26 - <52 weeks,3,,
duration,4,4,52 weeks +,4,,
duration,9,9,Unknown,9,,
ethnicity,10000,10000,New Zealand Maori,10000,,
ethnicity,20000,20000,Pacific Peoples,20000,,
ethnicity,30000,30000,Asian,30000,,
ethnicity,40000,40000,Other,40000,,
ethnicity,60000,60000,Pakeha/European,60000,,
ethnicity,99999,99999,Unknown,99999,,
externalagency,448448034,448448034,"Aerial Wires, Lines",448448034,,
externalagency,448448035,448448035,Aircraft,448448035,,
externalagency,448448042,448448042,Animal Carcass,448448042,448448042,Animals
externalagency,448448036,448448036,Animal--Live Cattle,448448036,448448042,Animals
externalagency,448448037,448448037,Animal--Live Deer,448448037,448448042,Animals
externalagency,448448038,448448038,Animal--Live Dog,448448038,448448042,Animals
externalagency,448448039,448448039,Animal--Live Horse,448448039,448448042,Animals
externalagency,448448040,448448040,Animal--Live Sheep,448448040,448448042,Animals
externalagency,448448041,448448041,Animal--Other Live Animal NEC,448448041,448448042,Animals
externalagency,448448001,448448001,Appliance--Electric Or Gas,448448001,,
externalagency,448448043,448448043,"Bottle, Can, Jar, Etc",448448043,,
externalagency,448448044,448448044,"Box, Carton, Crate",448448044,,
externalagency,448448045,448448045,Clothing,448448045,,
externalagency,448448046,448448046,"Door (not Glass), Gate, Lid",448448046,,
externalagency,448448002,448448002,Electric Socket/Plug/Wiring,448448002,,
externalagency,448448049,448448049,Environment--Chemical Gas/Fume/Dust,448448049,448448049,Environment
externalagency,448448050,448448050,Environment--Chemical Solid Or Liquid,448448050,448448049,Environment
externalagency,448448047,448448047,Environment--Noise,448448047,448448049,Environment
externalagency,448448048,448448048,Environment--Wind/Snow/Ice,448448048,448448049,Environment
externalagency,448448051,448448051,Environmental Factors NEC,448448051,448448049,Environment
externalagency,448448052,448448052,"Fence, Railing, Wall",448448052,,
externalagency,448448053,448448053,"Fire, Flame Etc",448448053,,
externalagency,448448054,448448054,Floor,448448054,,
externalagency,448448055,448448055,Furniture,448448055,,
externalagency,448448015,448448015,Glass--Already Broken,448448015,448448015,Glass
externalagency,448448013,448448013,Glass--Door,448448013,448448015,Glass
externalagency,448448016,448448016,Glass--NEC,448448016,448448015,Glass
externalagency,448448014,448448014,Glass--Window,448448014,448448015,Glass
externalagency,448448056,448448056,Ground/Path,448448056,,
externalagency,448448071,448448071,Health Professional,448448071,,
externalagency,448448057,448448057,"Hole, Well, Tunnel, Ditch",448448057,,
externalagency,448448058,448448058,"Ladder, Stepladder",448448058,,
externalagency,448448003,448448003,Lawnmower,448448003,,
externalagency,448448059,448448059,Liquids,448448059,,
externalagency,448448006,448448006,"Engine, Motor",448448006,448448006,Machinery
externalagency,448448004,448448004,Machinery - Agricultural,448448004,448448006,Machinery
externalagency,448448005,448448005,Machinery - Earthmoving,448448005,448448006,Machinery
externalagency,448448007,448448007,Machinery - Food Processing,448448007,448448006,Machinery
externalagency,448448008,448448008,"Machinery - Lifting, Hauling",448448008,448448006,Machinery
externalagency,448448009,448448009,Machinery - Metal Working,448448009,448448006,Machinery
externalagency,448448010,448448010,Machinery - Wood Working,448448010,448448006,Machinery
externalagency,448448011,448448011,Other Machinery NEC,448448011,448448006,Machinery
externalagency,448448060,448448060,"Mat, Rug, Carpet",448448060,,
externalagency,448448012,448448012,Office Equipment (not Furniture),448448012,,
externalagency,448448061,448448061,Person--Excluding Foot,448448061,448448061,Person
externalagency,448448062,448448062,Person--Foot,448448062,448448061,Person
externalagency,448448063,448448063,"Plant, Bush, Tree",448448063,,
externalagency,448448064,448448064,"Play Equipment--Swing, Slide, Etc",448448064,,
externalagency,448448065,448448065,Recreation/Sports Equipment--Ball,448448065,,
externalagency,448448066,448448066,Recreation/Sports Equipment--Other,448448066,,
externalagency,448448067,448448067,Self,448448067,,
externalagency,448448068,448448068,Sharp Object--Not Knife,448448068,,
externalagency,448448069,448448069,"Stairs, Steps--Fixed",448448069,,
externalagency,448448019,448448019,"Tool--Axe, Slasher, Cleaver",448448019,448448019,Tools
externalagency,448448023,448448023,Tool--Chainsaw,448448023,448448019,Tools
externalagency,448448020,448448020,Tool--Hammer,448448020,448448019,Tools
externalagency,448448022,448448022,Tool--Hand-held Circular Saw,448448022,448448019,Tools
externalagency,448448018,448448018,Tool--Knife,448448018,448448019,Tools
externalagency,448448024,448448024,Tool--Other Powered Hand Tool NEC,448448024,448448019,Tools
externalagency,448448025,448448025,Tool--Other Unpowered Hand Tool NEC,448448025,448448019,Tools
externalagency,448448021,448448021,"Tool--Spanner, Wrench",448448021,448448019,Tools
externalagency,448448070,448448070,Toy,448448070,,
externalagency,448448017,448448017,ATV,448448017,448448017,Vehicles
externalagency,448448028,448448028,Vehicle--Bus,448448028,448448017,Vehicles
externalagency,448448026,448448026,Vehicle--Car/van/utility/etc,448448026,448448017,Vehicles
externalagency,448448031,448448031,Vehicle--Cycle,448448031,448448017,Vehicles
externalagency,448448032,448448032,Vehicle--Forklift,448448032,448448017,Vehicles
externalagency,448448027,448448027,Vehicle--Motorcycle/moped/etc,448448027,448448017,Vehicles
externalagency,448448033,448448033,Vehicle--NEC,448448033,448448017,Vehicles
externalagency,448448030,448448030,Vehicle--Tractor,448448030,448448017,Vehicles
externalagency,448448029,448448029,Vehicle--Truck,448448029,448448017,Vehicles
externalagency,448448997,448448997,No External Agency Involved,448448997,,
externalagency,448448998,448448998,Other External Agency NEC,448448998,,
externalagency,448448999,448448999,Unknown,448448999,,
fund,2,2,Residual,2,,
fund,3,3,Motor Vehicle,3,,
fund,4,4,Non-earners,4,,
fund,5,5,Earners,5,,
fund,6,6,Employers/Other Insurer,6,,
fund,7,7,Treatment Injury,7,,
fund,10,10,Self-employed work,10,,
fund,99,99,Work-related,99,,
gender,1,1,Male,1,,
gender,2,2,Female,2,,
gender,9,9,Unknown,9,,
industry,01000,01000,A01 Agriculture,01000,01000,"A Agriculture, Forestry, and Fishing"
industry,02000,02000,"A02 Services to Agriculture, Hunting & Trapping",02000,01000,"A Agriculture, Forestry, and Fishing"
industry,03000,03000,A03 Forestry and Logging,03000,01000,"A Agriculture, Forestry, and Fishing"
industry,04000,04000,A04 Commercial Fishing,04000,01000,"A Agriculture, Forestry, and Fishing"
industry,11000,11000,B11 Coal Mining,11000,11000,B Mining
industry,12000,12000,B12 Oil and Gas Extraction,12000,11000,B Mining
industry,13000,13000,B13 Metal Ore Mining,13000,11000,B Mining
industry,14000,14000,B14 Other Mining,14000,11000,B Mining
industry,15000,15000,B15 Services to Mining,15000,11000,B Mining
industry,21000,21000,"C21 Food, Beverage, and Tobacco Manufacturing",21000,21000,C Manufacturing
industry,22000,22000,"C22 Textile, Clothing, Footwear & Leather Manufacturing",22000,21000,C Manufacturing
industry,23000,23000,C23 Wood and Paper Product Manufacturing,23000,21000,C Manufacturing
industry,24000,24000,"C24 Printing, Publishing, and Recorded Media",24000,21000,C Manufacturing
industry,25000,25000,"C25 Petroleum, Coal, Chemical & Associated Product Manufacturing",25000,21000,C Manufacturing
industry,26000,26000,C26 Non-Metallic Mineral Product Manufacturing,26000,21000,C Manufacturing
industry,27000,27000,C27 Metal Product Manufacturing,27000,21000,C Manufacturing
industry,28000,28000,C28 Machinery and Equipment Manufacturing,28000,21000,C Manufacturing
industry,29000,29000,C29 Other Manufacturing,29000,21000,C Manufacturing
industry,36000,36000,D36 Electricity and Gas Supply,36000,36000,"D Electricity, Gas, and Water Supply"
industry,37000,37000,"D37 Water Supply, Sewerage & Drainage Services",37000,36000,"D Electricity, Gas, and Water Supply"
industry,41000,41000,E41 General Construction,41000,41000,E Construction
industry,42000,42000,E42 Construction Trade Services,42000,41000,E Construction
industry,45000,45000,F45 Basic Material Wholesaling,45000,45000,F Wholesale Trade
industry,46000,46000,F46 Machinery & Motor Vehicle Wholesaling,46000,45000,F Wholesale Trade
industry,47000,47000,F47 Personal & Household Good Wholesaling,47000,45000,F Wholesale Trade
industry,51000,51000,G51 Food Retailing,51000,51000,G Retail Trade
industry,52000,52000,G52 Personal & Household Good Retailing,52000,51000,G Retail Trade
industry,53000,53000,G53 Motor Vehicle Retailing & Services,53000,51000,G Retail Trade
industry,57000,57000,"H57 Accommodation, Cafes and Restaurants",57000,57000,"H Accommodation, Cafes, and Restaurants"
industry,61000,61000,I61 Road Transport,61000,61000,I Transport and Storage
industry,62000,62000,I62 Rail Transport,62000,61000,I Transport and Storage
industry,63000,63000,I63 Water Transport,63000,61000,I Transport and Storage
industry,64000,64000,I64 Air and Space Transport,64000,61000,I Transport and Storage
industry,65000,65000,I65 Other Transport,65000,61000,I Transport and Storage
industry,66000,66000,I66 Services To Transport,66000,61000,I Transport and Storage
industry,67000,67000,I67 Storage,67000,61000,I Transport and Storage
industry,71000,71000,J71 Communication Services,71000,71000,J Communication Services
industry,73000,73000,K73 Finance,73000,73000,K Finance and Insurance
industry,74000,74000,K74 Insurance,74000,73000,K Finance and Insurance
industry,75000,75000,K75 Services to Finance and Insurance,75000,73000,K Finance and Insurance
industry,77000,77000,L77 Property Services,77000,77000,L Property and Business Services
industry,78000,78000,L78 Business Services,78000,77000,L Property and Business Services
industry,81000,81000,M81 Government Administration,81000,81000,M Government Administration and Defence
industry,82000,82000,M82 Defence,82000,81000,M Government Administration and Defence
industry,84000,84000,N84 Education,84000,84000,N Education
industry,86000,86000,O86 Health Services,86000,86000,O Health and Community Services
industry,87000,87000,O87 Community Services,87000,86000,O Health and Community Services
industry,91000,91000,"P91 Motion Picture, Radio, & Television Services",91000,91000,P Cultural and Recreational Services
industry,92000,92000,"P92 Libraries, Museums, and the Arts",92000,91000,P Cultural and Recreational Services
industry,93000,93000,P93 Sport and Recreation,93000,91000,P Cultural and Recreational Services
industry,95000,95000,Q95 Personal Services,95000,95000,Q Personal and Other Services
industry,96000,96000,Q96 Other Services,96000,95000,Q Personal and Other Services
industry,97000,97000,Q97 Private Households Employing Staff,97000,95000,Q Personal and Other Services
industry,99999,99999,Unknown,99999,,
injuryprofile,1,1,High Level Tetraplegic,1,,
injuryprofile,2,2,Low Level Tetraplegic / High Level Paraplegic,2,,
injuryprofile,3,3,Paraplegic,3,,
injuryprofile,5,5,Severe Brain Injury (Adult),5,,
injuryprofile,6,6,Severe to Moderate Brain Injury,6,,
injuryprofile,8,8,Comparable Diagnosis,8,,
injuryprofile,10,10,Incomplete Spinal Cord Injuries,10,,
injuryprofile,13,13,Recent Severe or Moderate Brain Injury,13,,
occupation,1111,1111,1111 Legislators,1111,1111,"1 Legislators, Administrators, and Managers"
occupation,1121,1121,1121 Senior Government Administrators,1121,1111,"1 Legislators, Administrators, and Managers"
occupation,1131,1131,1131 Senior Business Administrators,1131,1111,"1 Legislators, Administrators, and Managers"
occupation,1141,1141,1141 Special-Interest Organisation Administrators,1141,1111,"1 Legislators, Administrators, and Managers"
occupation,1211,1211,1211 General Managers,1211,1111,"1 Legislators, Administrators, and Managers"
occupation,1221,1221,1221 Production and Operation Managers,1221,1111,"1 Legislators, Administrators, and Managers"
occupation,1222,1222,1222 Finance and Administration Managers,1222,1111,"1 Legislators, Administrators, and Managers"
occupation,1223,1223,1223 Human Resources Managers,1223,1111,"1 Legislators, Administrators, and Managers"
occupation,1224,1224,1224 Sales and Marketing Managers,1224,1111,"1 Legislators, Administrators, and Managers"
occupation,1225,1225,1225 Advertising and Public Relations Managers,1225,1111,"1 Legislators, Administrators, and Managers"
occupation,1226,1226,1226 Supply and Distribution Managers,1226,1111,"1 Legislators, Administrators, and Managers"
occupation,1227,1227,1227 Information Technology Managers,1227,1111,"1 Legislators, Administrators, and Managers"
occupation,1228,1228,1228 Research and Development Managers,1228,1111,"1 Legislators, Administrators, and Managers"
occupation,1229,1229,1229 Other Specialised Managers,1229,1111,"1 Legislators, Administrators, and Managers"
occupation,2111,2111,2111 Physicists,2111,2111,2 Professionals
occupation,2112,2112,2112 Meteorologists,2112,2111,2 Professionals
occupation,2113,2113,2113 Chemists,2113,2111,2 Professionals
occupation,2114,2114,2114 Geologists and Geophysicists,2114,2111,2 Professionals
occupation,2121,2121,"2121 Mathematicians, Statisticians and Related Professionals",2121,2111,2 Professionals
occupation,2131,2131,2131 Computing Professionals,2131,2111,2 Professionals
occupation,2141,2141,2141 Architects and Resource Management Professionals,2141,2111,2 Professionals
occupation,2142,2142,2142 Civil Engineers,2142,2111,2 Professionals
occupation,2143,2143,2143 Electrical Engineers,2143,2111,2 Professionals
occupation,2144,2144,2144 Electronic and Telecommunications Engineers,2144,2111,2 Professionals
occupation,2145,2145,2145 Mechanical Engineers,2145,2111,2 Professionals
occupation,2146,2146,2146 Chemical Engineers,2146,2111,2 Professionals
occupation,2147,2147,"2147 Mining Engineers, Metallurgists and Related Professionals",2147,2111,2 Professionals
occupation,2148,2148,2148 Cartographers and Surveyors,2148,2111,2 Professionals
occupation,2211,2211,"2211 Biologists, Botanists, Zoologists and Related Professionals",2211,2111,2 Professionals
occupation,2212,2212,2212 Microbiologists and Related Professionals,2212,2111,2 Professionals
occupation,2213,2213,2213 Agricultural and Natural Resource Scientists,2213,2111,2 Professionals
occupation,2221,2221,2221 Medical Doctors,2221,2111,2 Professionals
occupation,2222,2222,2222 Dentists,2222,2111,2 Professionals
occupation,2223,2223,2223 Veterinarians,2223,2111,2 Professionals
occupation,2224,2224,2224 Pharmacists,2224,2111,2 Professionals
occupation,2225,2225,2225 Dietitians and Public Health Nutritionists,2225,2111,2 Professionals
occupation,2226,2226,2226 Other Health Professionals (Except Nursing),2226,2111,2 Professionals
occupation,2231,2231,2231 Nursing and Midwifery Professionals,2231,2111,2 Professionals
occupation,2311,2311,2311 Tertiary Teaching Professionals,2311,2111,2 Professionals
occupation,2321,2321,2321 Secondary Teaching Professionals,2321,2111,2 Professionals
occupation,2331,2331,2331 Primary Teaching Professionals,2331,2111,2 Professionals
occupation,2332,2332,2332 Early Childhood Teaching Professionals,2332,2111,2 Professionals
occupation,2341,2341,2341 Special Education Teaching Professionals,2341,2111,2 Professionals
occupation,2351,2351,2351 Education Advisers,2351,2111,2 Professionals
occupation,2352,2352,2352 Education Reviewers,2352,2111,2 Professionals
occupation,2411,2411,2411 Accountants,2411,2111,2 Professionals
occupation,2412,2412,2412 Human Resources Professionals,2412,2111,2 Professionals
occupation,2413,2413,2413 Other Business Professionals,2413,2111,2 Professionals
occupation,2421,2421,2421 Barristers and Solicitors,2421,2111,2 Professionals
occupation,2422,2422,2422 Judges,2422,2111,2 Professionals
occupation,2423,2423,2423 Other Legal Professionals,2423,2111,2 Professionals
occupation,2431,2431,2431 Archivists and Curators,2431,2111,2 Professionals
occupation,2432,2432,2432 Librarians and Related Information Professionals,2432,2111,2 Professionals
occupation,2441,2441,2441 Economists,2441,2111,2 Professionals
occupation,2442,2442,2442 Social Scientists,2442,2111,2 Professionals
occupation,2443,2443,"2443 Philologists, Translators and Interpreters",2443,2111,2 Professionals
occupation,2444,2444,2444 Psychologists and Psychotherapists,2444,2111,2 Professionals
occupation,2445,2445,2445 Counsellors,2445,2111,2 Professionals
occupation,2446,2446,2446 Other Government Associate Professionals,2446,2111,2 Professionals
occupation,2451,2451,2451 Religious Professionals,2451,2111,2 Professionals
occupation,3111,3111,3111 Physical Science Technicians,3111,3111,3 Technicians and Associate Professionals
occupation,3112,3112,3112 Civil Engineering Technicians,3112,3111,3 Technicians and Associate Professionals
occupation,3113,3113,3113 Electrical Engineering Technicians,3113,3111,3 Technicians and Associate Professionals
occupation,3114,3114,3114 Electronic Engineering Technicians,3114,3111,3 Technicians and Associate Professionals
occupation,3115,3115,3115 Mechanical Engineering Technicians,3115,3111,3 Technicians and Associate Professionals
occupation,3116,3116,3116 Chemical Engineering Technicians,3116,3111,3 Technicians and Associate Professionals
occupation,3118,3118,3118 Draughting Technicians,3118,3111,3 Technicians and Associate Professionals
occupation,3119,3119,3119 Other Engineering Technicians,3119,3111,3 Technicians and Associate Professionals
occupation,3121,3121,3121 Computer Equipment Controllers,3121,3111,3 Technicians and Associate Professionals
occupation,3131,3131,3131 Photographers and Image and Sound Recording Equipment Controllers,3131,3111,3 Technicians and Associate Professionals
occupation,3132,3132,3132 Broadcasting and Telecommunications Equipment Controllers,3132,3111,3 Technicians and Associate Professionals
occupation,3133,3133,3133 Medical Equipment Controllers,3133,3111,3 Technicians and Associate Professionals
occupation,3141,3141,3141 Ships' Engineers,3141,3111,3 Technicians and Associate Professionals
occupation,3142,3142,3142 Ships' Deck Officers and Pilots,3142,3111,3 Technicians and Associate Professionals
occupation,3143,3143,3143 Aircraft Pilots and Related Workers,3143,3111,3 Technicians and Associate Professionals
occupation,3144,3144,3144 Air Traffic Controllers,3144,3111,3 Technicians and Associate Professionals
occupation,3151,3151,3151 Safety and Health Inspectors,3151,3111,3 Technicians and Associate Professionals
occupation,3211,3211,3211 Life Science Technicians,3211,3111,3 Technicians and Associate Professionals
occupation,3212,3212,3212 Agricultural Technicians,3212,3111,3 Technicians and Associate Professionals
occupation,3221,3221,3221 Opticians,3221,3111,3 Technicians and Associate Professionals
occupation,3222,3222,3222 Dental Assistants,3222,3111,3 Technicians and Associate Professionals
occupation,3223,3223,3223 Physiotherapists,3223,3111,3 Technicians and Associate Professionals
occupation,3224,3224,3224 Veterinary Assistants,3224,3111,3 Technicians and Associate Professionals
occupation,3225,3225,3225 Pharmaceutical Assistants,3225,3111,3 Technicians and Associate Professionals
occupation,3226,3226,3226 Other Health Associate Professionals,3226,3111,3 Technicians and Associate Professionals
occupation,3231,3231,3231 Nursing Associate Professionals,3231,3111,3 Technicians and Associate Professionals
occupation,3311,3311,3311 Securities and Finance Dealers and Brokers,3311,3111,3 Technicians and Associate Professionals
occupation,3312,3312,3312 Insurance Representative,3312,3111,3 Technicians and Associate Professionals
occupation,3313,3313,3313 Real Estate Agents,3313,3111,3 Technicians and Associate Professionals
occupation,3314,3314,3314 Travel Consultants and Organisers,3314,3111,3 Technicians and Associate Professionals
occupation,3315,3315,3315 Sales Representatives,3315,3111,3 Technicians and Associate Professionals
occupation,3316,3316,3316 Buyers,3316,3111,3 Technicians and Associate Professionals
occupation,3317,3317,3317 Valuers,3317,3111,3 Technicians and Associate Professionals
occupation,3318,3318,3318 Auctioneers,3318,3111,3 Technicians and Associate Professionals
occupation,3319,3319,3319 Other Finance and Sales Associate Professionals,3319,3111,3 Technicians and Associate Professionals
occupation,3321,3321,3321 Administrative and Related Associate Professionals,3321,3111,3 Technicians and Associate Professionals
occupation,3322,3322,3322 Legal and Related Business Associate Professionals,3322,3111,3 Technicians and Associate Professionals
occupation,3323,3323,3323 Bookkeepers,3323,3111,3 Technicians and Associate Professionals
occupation,3324,3324,3324 Business and Organisation Associate Professionals,3324,3111,3 Technicians and Associate Professionals
occupation,3331,3331,3331 Customs and Border Inspectors,3331,3111,3 Technicians and Associate Professionals
occupation,3341,3341,3341 Social Work Associate Professionals,3341,3111,3 Technicians and Associate Professionals
occupation,3342,3342,3342 Education Associate Professionals,3342,3111,3 Technicians and Associate Professionals
occupation,3351,3351,3351 Careers and Employment Advisers,3351,3111,3 Technicians and Associate Professionals
occupation,3361,3361,"3361 Authors, Journalists and Other Writers",3361,3111,3 Technicians and Associate Professionals
occupation,3362,3362,"3362 Sculptors, Painters and Related Artists",3362,3111,3 Technicians and Associate Professionals
occupation,3363,3363,3363 Decorators and Designers,3363,3111,3 Technicians and Associate Professionals
occupation,3364,3364,"3364 Composers, Musicians and Singers",3364,3111,3 Technicians and Associate Professionals
occupation,3365,3365,3365 Choreographers and Dancers,3365,3111,3 Technicians and Associate Professionals
occupation,3366,3366,"3366 Film, Stage and Related Actors and Directors",3366,3111,3 Technicians and Associate Professionals
occupation,3367,3367,3367 Media Presenters,3367,3111,3 Technicians and Associate Professionals
occupation,3368,3368,"3368 Clowns, Magicians, Acrobats and Related Workers",3368,3111,3 Technicians and Associate Professionals
occupation,3369,3369,3369 Sportspersons and Related Workers,3369,3111,3 Technicians and Associate Professionals
occupation,3371,3371,3371 Non-Ordained Religious Associate Professionals,3371,3111,3 Technicians and Associate Professionals
occupation,3381,3381,3381 Environmental Protection Associate Professionals,3381,3111,3 Technicians and Associate Professionals
occupation,4111,4111,4111 Typists and Word Processor Operators,4111,4111,4 Clerks
occupation,4112,4112,4112 Data Entry Operators,4112,4111,4 Clerks
occupation,4114,4114,4114 Secretaries,4114,4111,4 Clerks
occupation,4121,4121,4121 Accounting and Bookkeeping Clerks,4121,4111,4 Clerks
occupation,4122,4122,4122 Statistical and Finance Clerks,4122,4111,4 Clerks
occupation,4131,4131,4131 Stock Clerks,4131,4111,4 Clerks
occupation,4132,4132,4132 Production Clerks,4132,4111,4 Clerks
occupation,4133,4133,4133 Transport Clerks,4133,4111,4 Clerks
occupation,4141,4141,4141 Library and Filing Clerks,4141,4111,4 Clerks
occupation,4142,4142,4142 Mail Carriers and Sorting Clerks,4142,4111,4 Clerks
occupation,4143,4143,4143 Proof Reading and Related Clerks,4143,4111,4 Clerks
occupation,4144,4144,4144 Office Clerks,4144,4111,4 Clerks
occupation,4211,4211,4211 Cashiers and Ticket Issuers,4211,4111,4 Clerks
occupation,4212,4212,4212 Bank Officers,4212,4111,4 Clerks
occupation,4213,4213,4213 Gaming Workers,4213,4111,4 Clerks
occupation,4215,4215,"4215 Bill, Debt and Related Cash Collectors",4215,4111,4 Clerks
occupation,4221,4221,4221 Receptionists and Information Clerks,4221,4111,4 Clerks
occupation,4222,4222,4222 Telephone Switchboard Operators,4222,4111,4 Clerks
occupation,5111,5111,5111 Travel Attendants,5111,5111,5 Service and Sales Workers
occupation,5112,5112,5112 Travel Guides,5112,5111,5 Service and Sales Workers
occupation,5121,5121,5121 Housekeepers,5121,5111,5 Service and Sales Workers
occupation,5122,5122,5122 Cooks,5122,5111,5 Service and Sales Workers
occupation,5123,5123,5123 Waiters and Bartenders,5123,5111,5 Service and Sales Workers
occupation,5131,5131,5131 Personal Care Workers,5131,5111,5 Service and Sales Workers
occupation,5141,5141,"5141 Hairdressers, Beauty Therapists and Related Workers",5141,5111,5 Service and Sales Workers
occupation,5142,5142,5142 Child Care Workers,5142,5111,5 Service and Sales Workers
occupation,5143,5143,5143 Undertakers,5143,5111,5 Service and Sales Workers
occupation,5151,5151,5151 Fire Fighters,5151,5111,5 Service and Sales Workers
occupation,5152,5152,5152 Police,5152,5111,5 Service and Sales Workers
occupation,5153,5153,5153 Prison Guards,5153,5111,5 Service and Sales Workers
occupation,5154,5154,5154 Other Protective Services Workers,5154,5111,5 Service and Sales Workers
occupation,5155,5155,5155 Armed Forces,5155,5111,5 Service and Sales Workers
occupation,5211,5211,5211 Salespersons and Demonstrators,5211,5111,5 Service and Sales Workers
occupation,5221,5221,5221 Street Vendors,5221,5111,5 Service and Sales Workers
occupation,5231,5231,5231 Fashion and Other Models,5231,5111,5 Service and Sales Workers
occupation,6111,6111,6111 Field Crop and Vegetable Growers,6111,6111,6 Agriculture and Fishery Workers
occupation,6112,6112,6112 Fruit Growers,6112,6111,6 Agriculture and Fishery Workers
occupation,6113,6113,6113 Gardeners and Nursery Growers,6113,6111,6 Agriculture and Fishery Workers
occupation,6121,6121,6121 Livestock Producers,6121,6111,6 Agriculture and Fishery Workers
occupation,6122,6122,6122 Mixed Livestock Producers,6122,6111,6 Agriculture and Fishery Workers
occupation,6123,6123,6123 Poultry Producers,6123,6111,6 Agriculture and Fishery Workers
occupation,6124,6124,6124 Apiarists,6124,6111,6 Agriculture and Fishery Workers
occupation,6125,6125,6125 Crop and Livestock Producers,6125,6111,6 Agriculture and Fishery Workers
occupation,6126,6126,6126 Other Agriculture Workers,6126,6111,6 Agriculture and Fishery Workers
occupation,6131,6131,6131 Forestry Workers and Loggers,6131,6111,6 Agriculture and Fishery Workers
occupation,6141,6141,6141 Fishery Workers,6141,6111,6 Agriculture and Fishery Workers
occupation,6142,6142,6142 Aquatic Life Cultivation Workers,6142,6111,6 Agriculture and Fishery Workers
occupation,6143,6143,6143 Hunters and Trappers,6143,6111,6 Agriculture and Fishery Workers
occupation,6144,6144,6144 Animal Welfare Workers,6144,6111,6 Agriculture and Fishery Workers
occupation,7111,7111,7111 Bricklayers and Stonemasons,7111,7111,7 Trades Workers
occupation,7112,7112,7112 Carpenters and Joiners,7112,7111,7 Trades Workers
occupation,7121,7121,7121 Plasterers,7121,7111,7 Trades Workers
occupation,7122,7122,7122 Glaziers,7122,7111,7 Trades Workers
occupation,7123,7123,7123 Plumbers,7123,7111,7 Trades Workers
occupation,7124,7124,7124 Painters and Paperhangers,7124,7111,7 Trades Workers
occupation,7131,7131,7131 Electricians,7131,7111,7 Trades Workers
occupation,7211,7211,7211 Metal Moulders,7211,7111,7 Trades Workers
occupation,7212,7212,7212 Sheet-Metal Workers,7212,7111,7 Trades Workers
occupation,7221,7221,7221 Blacksmiths,7221,7111,7 Trades Workers
occupation,7222,7222,"7222 Toolmakers, Pattern Makers and Metal Markers",7222,7111,7 Trades Workers
occupation,7223,7223,7223 Fitters and Turners,7223,7111,7 Trades Workers
occupation,7224,7224,7224 Saw Doctors,7224,7111,7 Trades Workers
occupation,7231,7231,7231 Machinery Mechanics and Fitters,7231,7111,7 Trades Workers
occupation,7241,7241,7241 Electrical Mechanics and Fitters,7241,7111,7 Trades Workers
occupation,7242,7242,7242 Electronics Fitters and Servicers,7242,7111,7 Trades Workers
occupation,7243,7243,7243 Radio and Television Servicers,7243,7111,7 Trades Workers
occupation,7311,7311,7311 Precision Instrument Makers and Repairers,7311,7111,7 Trades Workers
occupation,7312,7312,7312 Musical Instrument Makers and Tuners,7312,7111,7 Trades Workers
occupation,7313,7313,7313 Jewellery and Precious Metal Trades Workers,7313,7111,7 Trades Workers
occupation,7321,7321,7321 Glass Cutters and Finishers,7321,7111,7 Trades Workers
occupation,7331,7331,7331 Printing Trades Workers,7331,7111,7 Trades Workers
occupation,7332,7332,7332 Binding Trades Workers,7332,7111,7 Trades Workers
occupation,7333,7333,7333 Printing Engravers and Etchers,7333,7111,7 Trades Workers
occupation,7411,7411,7411 Butchers,7411,7111,7 Trades Workers
occupation,7412,7412,7412 Bakers,7412,7111,7 Trades Workers
occupation,7421,7421,7421 Cabinet Makers and Related Workers,7421,7111,7 Trades Workers
occupation,7431,7431,7431 Tailors and Dressmakers,7431,7111,7 Trades Workers
occupation,7432,7432,7432 Upholsterers and Related Workers,7432,7111,7 Trades Workers
occupation,7433,7433,7433 Floor Covering Layers,7433,7111,7 Trades Workers
occupation,7441,7441,7441 Leather Goods Makers,7441,7111,7 Trades Workers
occupation,8111,8111,8111 Mining Plant Operators,8111,8111,8 Plant and Machine Operators and Assemblers
occupation,8112,8112,8112 Mineral Ore and Stone Treating Plant Operators,8112,8111,8 Plant and Machine Operators and Assemblers
occupation,8113,8113,8113 Drillers,8113,8111,8 Plant and Machine Operators and Assemblers
occupation,8121,8121,"8121 Ore Smelting, Metal Converting and Refining Furnace Operators",8121,8111,8 Plant and Machine Operators and Assemblers
occupation,8122,8122,8122 Metal Casters,8122,8111,8 Plant and Machine Operators and Assemblers
occupation,8123,8123,8123 Metal Welders,8123,8111,8 Plant and Machine Operators and Assemblers
occupation,8124,8124,8124 Metal Drawers and Extruders,8124,8111,8 Plant and Machine Operators and Assemblers
occupation,8131,8131,8131 Glass and Ceramics Kiln Operators,8131,8111,8 Plant and Machine Operators and Assemblers
occupation,8132,8132,8132 Other Glass and Ceramics Workers,8132,8111,8 Plant and Machine Operators and Assemblers
occupation,8141,8141,"8141 Sawmill, Wood Panel and Related Wood-Processing Plant Operators",8141,8111,8 Plant and Machine Operators and Assemblers
occupation,8142,8142,8142 Paper Pulp Preparation Plant Operators,8142,8111,8 Plant and Machine Operators and Assemblers
occupation,8143,8143,8143 Papermaking Plant Operators,8143,8111,8 Plant and Machine Operators and Assemblers
occupation,8151,8151,"8151 Crushing, Grinding and Mixing Equipment Operators",8151,8111,8 Plant and Machine Operators and Assemblers
occupation,8152,8152,8152 Filtering and Separating Equipment Operators,8152,8111,8 Plant and Machine Operators and Assemblers
occupation,8153,8153,8153 Still and Reactor Operators,8153,8111,8 Plant and Machine Operators and Assemblers
occupation,8154,8154,8154 Other Chemical Processing Plant Operators,8154,8111,8 Plant and Machine Operators and Assemblers
occupation,8161,8161,8161 Power Generating Plant Operators,8161,8111,8 Plant and Machine Operators and Assemblers
occupation,8211,8211,8211 Machine-Tool Operators,8211,8111,8 Plant and Machine Operators and Assemblers
occupation,8212,8212,8212 Cement and Other Minerals Processing Machine Operators,8212,8111,8 Plant and Machine Operators and Assemblers
occupation,8221,8221,8221 Pharmaceutical and Toiletry Products Machine Operators,8221,8111,8 Plant and Machine Operators and Assemblers
occupation,8222,8222,"8222 Metal Finishers, Platers and Coaters",8222,8111,8 Plant and Machine Operators and Assemblers
occupation,8223,8223,8223 Photographic Products Machine Operators,8223,8111,8 Plant and Machine Operators and Assemblers
occupation,8231,8231,8231 Tyre Production Machine Operators,8231,8111,8 Plant and Machine Operators and Assemblers
occupation,8232,8232,8232 Other Rubber and Plastics Products Machine Operators,8232,8111,8 Plant and Machine Operators and Assemblers
occupation,8241,8241,8241 Wood Products Machine Operators,8241,8111,8 Plant and Machine Operators and Assemblers
occupation,8242,8242,8242 Wood Treaters,8242,8111,8 Plant and Machine Operators and Assemblers
occupation,8251,8251,8251 Paper and Paperboard Products Machine Operators,8251,8111,8 Plant and Machine Operators and Assemblers
occupation,8261,8261,8261 Spinning and Winding Machine Operators,8261,8111,8 Plant and Machine Operators and Assemblers
occupation,8262,8262,8262 Weaving and Knitting Machine Operators,8262,8111,8 Plant and Machine Operators and Assemblers
occupation,8263,8263,8263 Sewing and Embroidering Machine Operators,8263,8111,8 Plant and Machine Operators and Assemblers
occupation,8264,8264,"8264 Textile Bleaching, Dyeing and Cleaning Machine Operators",8264,8111,8 Plant and Machine Operators and Assemblers
occupation,8265,8265,8265 Other Textile Products Machine Operators,8265,8111,8 Plant and Machine Operators and Assemblers
occupation,8271,8271,8271 Meat and Fish Processing Machine Operators,8271,8111,8 Plant and Machine Operators and Assemblers
occupation,8272,8272,8272 Dairy Products Machine Operators,8272,8111,8 Plant and Machine Operators and Assemblers
occupation,8273,8273,8273 Grain Milling Machine Operators,8273,8111,8 Plant and Machine Operators and Assemblers
occupation,8274,8274,8274 Baked Goods and Cereals Producing Machine Operators,8274,8111,8 Plant and Machine Operators and Assemblers
occupation,8275,8275,"8275 Fruit, Vegetable and Nut Processing Machine Operators",8275,8111,8 Plant and Machine Operators and Assemblers
occupation,8276,8276,8276 Sugar Processing and Refining Machine Operators,8276,8111,8 Plant and Machine Operators and Assemblers
occupation,8277,8277,8277 Other Food Products Processing Machine Operators,8277,8111,8 Plant and Machine Operators and Assemblers
occupation,8278,8278,8278 Tobacco Products Processing Machine Operators,8278,8111,8 Plant and Machine Operators and Assemblers
occupation,8279,8279,"8279 Brewers, Wine and Other Beverage Machine Operators",8279,8111,8 Plant and Machine Operators and Assemblers
occupation,8281,8281,8281 Leather and Related Products Processors,8281,8111,8 Plant and Machine Operators and Assemblers
occupation,8291,8291,8291 Mechanical Machinery Assemblers,8291,8111,8 Plant and Machine Operators and Assemblers
occupation,8292,8292,8292 Electrical Machinery Assemblers,8292,8111,8 Plant and Machine Operators and Assemblers
occupation,8293,8293,"8293 Metal, Rubber and Plastic Products Assemblers",8293,8111,8 Plant and Machine Operators and Assemblers
occupation,8294,8294,8294 Wood and Related Materials Products Assemblers,8294,8111,8 Plant and Machine Operators and Assemblers
occupation,8295,8295,8295 Leather Goods Assemblers,8295,8111,8 Plant and Machine Operators and Assemblers
occupation,8311,8311,8311 Railway Engine Drivers,8311,8111,8 Plant and Machine Operators and Assemblers
occupation,8321,8321,"8321 Car, Taxi and Light Van Drivers",8321,8111,8 Plant and Machine Operators and Assemblers
occupation,8322,8322,8322 Bus Drivers,8322,8111,8 Plant and Machine Operators and Assemblers
occupation,8323,8323,8323 Heavy Truck Drivers,8323,8111,8 Plant and Machine Operators and Assemblers
occupation,8331,8331,8331 Motorised Farm Machinery Operators,8331,8111,8 Plant and Machine Operators and Assemblers
occupation,8332,8332,8332 Earthmoving and Related Machinery Operators,8332,8111,8 Plant and Machine Operators and Assemblers
occupation,8333,8333,8333 Crane Operators,8333,8111,8 Plant and Machine Operators and Assemblers
occupation,8334,8334,8334 Lifting-Truck Operators,8334,8111,8 Plant and Machine Operators and Assemblers
occupation,8341,8341,8341 Ships' Deck Crews and Related Workers,8341,8111,8 Plant and Machine Operators and Assemblers
occupation,8411,8411,8411 Building and Related Workers,8411,8111,8 Plant and Machine Operators and Assemblers
occupation,8412,8412,8412 Underwater Workers,8412,8111,8 Plant and Machine Operators and Assemblers
occupation,9111,9111,9111 Caretakers and Cleaners,9111,9111,9 Elementary Occupations
occupation,9121,9121,9121 Messengers and Doorkeepers,9121,9111,9 Elementary Occupations
occupation,9131,9131,9131 Refuse Collectors and Related Labourers,9131,9111,9 Elementary Occupations
occupation,9141,9141,9141 Packers and Freight Handlers,9141,9111,9 Elementary Occupations
occupation,9151,9151,9151 Labourers,9151,9111,9 Elementary Occupations
occupation,9700,9700,9700 Response Unidentifiable,9700,9700,Unknown
occupation,9900,9900,9900 Response Outside Scope,9900,9700,Unknown
occupation,9991,9991,9991 Housewife/Househusband,9991,9700,Unknown
occupation,9992,9992,9992 Sickness Beneficiary,9992,9700,Unknown
occupation,9993,9993,9993 Retired,9993,9700,Unknown
occupation,9994,9994,9994 Student,9994,9700,Unknown
occupation,9995,9995,9995 Overseas Visitor,9995,9700,Unknown
occupation,9996,9996,9996 Unemployed,9996,9700,Unknown
occupation,9997,9997,9997 Pre-school Child,9997,9700,Unknown
occupation,9998,9998,9998 Prison Inmate,9998,9700,Unknown
occupation,9999,9999,9999 Not Stated,9999,9700,Unknown
nzta,001,001,Far North District,001,,
nzta,002,002,Whangarei District,002,,
nzta,003,003,Kaipara District,003,,
nzta,004,004,Rodney District,004,,
nzta,005,005,North Shore City,005,,
nzta,006,006,Waitakere City,006,,
nzta,007,007,Auckland City,007,,
nzta,008,008,Manukau City,008,,
nzta,009,009,Papakura District,009,,
nzta,010,010,Franklin District,010,,
nzta,011,011,Thames-Coromandel District,011,,
nzta,012,012,Hauraki District,012,,
nzta,013,013,Waikato District,013,,
nzta,015,015,Matamata-Piako District,015,,
nzta,016,016,Hamilton City,016,,
nzta,017,017,Waipa District,017,,
nzta,018,018,Otorohanga District,018,,
nzta,019,019,South Waikato District,019,,
nzta,020,020,Waitomo District,020,,
nzta,021,021,Taupo District,021,,
nzta,022,022,Western Bay of Plenty District,022,,
nzta,023,023,Tauranga City,023,,
nzta,024,024,Rotorua District,024,,
nzta,025,025,Whakatane District,025,,
nzta,026,026,Kawerau District,026,,
nzta,027,027,Opotiki District,027,,
nzta,028,028,Gisborne District,028,,
nzta,029,029,Wairoa District,029,,
nzta,030,030,Hastings District,030,,
nzta,031,031,Napier City,031,,
nzta,032,032,Central Hawke's Bay District,032,,
nzta,033,033,New Plymouth District,033,,
nzta,034,034,Stratford District,034,,
nzta,035,035,South Taranaki District,035,,
nzta,036,036,Ruapehu District,036,,
nzta,037,037,Wanganui District,037,,
nzta,038,038,Rangitikei District,038,,
nzta,039,039,Manawatu District,039,,
nzta,040,040,Palmerston North City,040,,
nzta,041,041,Tararua District,041,,
nzta,042,042,Horowhenua District,042,,
nzta,043,043,Kapiti Coast District,043,,
nzta,044,044,Porirua City,044,,
nzta,045,045,Upper Hutt City,045,,
nzta,046,046,Lower Hutt City,046,,
nzta,047,047,Wellington City,047,,
nzta,048,048,Masterton District,048,,
nzta,049,049,Carterton District,049,,
nzta,050,050,South Wairarapa District,050,,
nzta,051,051,Tasman District,051,,
nzta,052,052,Nelson City,052,,
nzta,053,053,Marlborough District,053,,
nzta,054,054,Kaikoura District,054,,
nzta,055,055,Buller District,055,,
nzta,056,056,Grey District,056,,
nzta,057,057,Westland District,057,,
nzta,058,058,Hurunui District,058,,
nzta,059,059,Waimakariri District,059,,
nzta,060,060,Christchurch City,060,,
nzta,061,061,Christchurch City,060,,
nzta,062,062,Selwyn District,062,,
nzta,063,063,Ashburton District,063,,
nzta,064,064,Timaru District,064,,
nzta,065,065,Mackenzie District,065,,
nzta,066,066,Waimate District,066,,
nzta,068,068,Waitaki District,068,,
nzta,069,069,Central Otago District,069,,
nzta,070,070,Queenstown-Lakes District,070,,
nzta,071,071,Dunedin City,071,,
nzta,072,072,Clutha District,072,,
nzta,073,073,Southland District,073,,
nzta,074,074,Gore District,074,,
nzta,075,075,Invercargill City,075,,
nzta,997,997,Chatham Islands Territory,997,,
nzta,998,998,Other,998,,
nzta,999,999,Unknown,999,,
region,01,01,Northland,01,,
region,02,02,Auckland,02,,
region,03,03,Waikato,03,,
region,04,04,Bay of Plenty,04,,
region,05,05,Gisborne,05,,
region,06,06,Hawke's Bay,06,,
region,07,07,Taranaki,07,,
region,08,08,Manawatu-Wanganui,08,,
region,09,09,Wellington,09,,
region,10,10,Tasman,10,,
region,11,11,Nelson,11,,
region,12,12,Marlborough,12,,
region,13,13,Canterbury,13,,
region,14,14,West Coast,14,,
region,15,15,Otago,15,,
region,16,16,Southland,16,,
region,17,17,Other,17,,
region,18,18,Unknown,18,,
roadacciind,1,1,Yes,1,,
roadacciind,2,2,No,2,,
scene,448032001,448032001,Home,448032001,,
scene,448032002,448032002,Farm,448032002,,
scene,448032003,448032003,Road or Street,448032003,,
scene,448032004,448032004,Industrial Place,448032004,,
scene,448032005,448032005,Commercial or Service Location,448032005,,
scene,448032006,448032006,School,448032006,,
scene,448032007,448032007,Place of Recreation or Sports,448032007,,
scene,448032008,448032008,Place of Medical Treatment,448032008,,
scene,448032998,448032998,Other,448032998,,
scene,448032999,448032999,Unknown,448032999,,
sensitiveind,1,1,Sensitive Claim,1,,
sensitiveind,2,2,Non-Sensitive Claim,2,,
seriousinjind,1,1,Serious Injury,1,,
seriousinjind,2,2,Non-Serious Injury,2,,
sport,448640041,448640041,Aerobics,448640041,,
sport,448640001,448640001,Athletics,448640001,,
sport,448640042,448640042,Athletics,448640001,,
sport,448640002,448640002,Badminton,448640002,,
sport,448640044,448640044,Badminton,448640002,,
sport,448640003,448640003,Basketball,448640003,,
sport,448640045,448640045,Basketball,448640003,,
sport,448640004,448640004,Boating,448640004,,
sport,448640046,448640046,Boating,448640004,,
sport,448640005,448640005,Bowls,448640005,,
sport,448640047,448640047,Bowls,448640005,,
sport,448640103,448640103,Boxing,448640103,,
sport,448640048,448640048,Bungee Jumping,448640048,,
sport,448640049,448640049,Indoor Cricket,448640049,448640049,Cricket
sport,448640050,448640050,Outdoor Cricket,448640050,448640049,Cricket
sport,448640006,448640006,Cricket - NEC,448640006,448640049,Cricket
sport,448640007,448640007,Cycling,448640007,,
sport,448640051,448640051,Cycling,448640007,,
sport,448640052,448640052,Dancing,448640052,,
sport,448640008,448640008,Fishing,448640008,,
sport,448640053,448640053,Fishing,448640008,,
sport,448640098,448640098,Fitness Training / Gym,448640098,,
sport,448640009,448640009,Golf,448640009,,
sport,448640054,448640054,Golf,448640009,,
sport,448640010,448640010,Gymnastics,448640010,,
sport,448640055,448640055,Gymnastics,448640010,,
sport,448640011,448640011,Hang-gliding,448640011,,
sport,448640056,448640056,Hang-gliding,448640011,,
sport,448640012,448640012,Hockey,448640012,,
sport,448640058,448640058,Hockey,448640012,,
sport,448640013,448640013,Horse Riding,448640013,,
sport,448640059,448640059,Horse Riding,448640013,,
sport,448640014,448640014,Hunting,448640014,,
sport,448640060,448640060,Hunting,448640014,,
sport,448640015,448640015,Ice Skating,448640015,,
sport,448640061,448640061,Ice Skating,448640015,,
sport,448640016,448640016,Jogging,448640016,,
sport,448640062,448640062,Jogging,448640016,,
sport,448640094,448640094,Kayaking,448640094,,
sport,448640104,448640104,Kick-boxing,448640104,,
sport,448640063,448640063,Luge Riding,448640063,,
sport,448640017,448640017,Martial Arts,448640017,,
sport,448640064,448640064,Martial Arts,448640017,,
sport,448640092,448640092,ATV,448640092,448640092,Motor Sports
sport,448640019,448640019,Motor Racing,448640019,448640092,Motor Sports
sport,448640066,448640066,Motor Racing,448640019,448640092,Motor Sports
sport,448640018,448640018,Motorcycling,448640018,448640092,Motor Sports
sport,448640065,448640065,Motorcycling,448640018,448640092,Motor Sports
sport,448640034,448640034,"Trail Biking, Motocross",448640034,448640092,Motor Sports
sport,448640082,448640082,"Trail Biking, Motocross",448640034,448640092,Motor Sports
sport,448640106,448640106,Mountain Biking,448640106,,
sport,448640020,448640020,Mountaineering,448640020,,
sport,448640067,448640067,Mountaineering,448640020,,
sport,448640021,448640021,Netball,448640021,,
sport,448640068,448640068,Netball,448640021,,
sport,448640022,448640022,Parachute Jumping,448640022,,
sport,448640069,448640069,Parachute Jumping,448640022,,
sport,448640023,448640023,Polo,448640023,,
sport,448640070,448640070,Polo,448640023,,
sport,448640095,448640095,Rock Climbing,448640095,,
sport,448640024,448640024,Roller Skating,448640024,,
sport,448640071,448640071,Roller Skating,448640024,,
sport,448640097,448640097,Rollerblading,448640097,,
sport,448640026,448640026,Rugby League,448640026,,
sport,448640073,448640073,Rugby League,448640026,,
sport,448640025,448640025,Rugby Union,448640025,,
sport,448640072,448640072,Rugby Union,448640025,,
sport,448640096,448640096,Scooter,448640096,,
sport,448640074,448640074,Skateboarding,448640074,,
sport,448640027,448640027,Skiing - Snow,448640027,,
sport,448640075,448640075,Skiing - Snow,448640027,,
sport,448640093,448640093,Snowboarding,448640093,,
sport,448640028,448640028,Soccer,448640028,,
sport,448640076,448640076,Soccer,448640028,,
sport,448640029,448640029,"Softball, Baseball",448640029,,
sport,448640077,448640077,"Softball, Baseball",448640029,,
sport,448640030,448640030,Squash,448640030,,
sport,448640078,448640078,Squash,448640030,,
sport,448640031,448640031,Surfing,448640031,,
sport,448640079,448640079,Surfing,448640031,,
sport,448640100,448640100,Swimming - Beach,448640100,448640100,Swimming
sport,448640102,448640102,Swimming - Lake,448640102,448640100,Swimming
sport,448640099,448640099,Swimming - Pool,448640099,448640100,Swimming
sport,448640101,448640101,Swimming - River,448640101,448640100,Swimming
sport,448640032,448640032,Swimming - NEC,448640032,448640100,Swimming
sport,448640080,448640080,Swimming - NEC,448640032,448640100,Swimming
sport,448640033,448640033,Tennis,448640033,,
sport,448640081,448640081,Tennis,448640033,,
sport,448640090,448640090,Touch Rugby,448640090,,
sport,448640035,448640035,Tramping,448640035,,
sport,448640089,448640089,Tramping,448640035,,
sport,448640036,448640036,Underwater Diving,448640036,,
sport,448640084,448640084,Underwater Diving,448640036,,
sport,448640037,448640037,Volleyball,448640037,,
sport,448640085,448640085,Volleyball,448640037,,
sport,448640038,448640038,Waterskiing,448640038,,
sport,448640086,448640086,Waterskiing,448640038,,
sport,448640039,448640039,Weightlifting,448640039,,
sport,448640087,448640087,Weightlifting,448640039,,
sport,448640040,448640040,Windsurfing,448640040,,
sport,448640088,448640088,Windsurfing,448640040,,
sport,448640998,448640998,Other,448640998,,
sport,448640999,448640999,Unknown,448640999,,
sportrelated,1,1,Yes,1,,
sportrelated,2,2,No,2,,
workrelated,1,1,Work Related,1,,
workrelated,2,2,Motor Vehicle,2,,
workrelated,3,3,Non-Work + Other,3,,
year,19905,20208,2014-07 / 2015-04,19905,,
year,19540,19904,2013-07 / 2014-06,19540,,
year,19175,19539,2012-07 / 2013-06,19175,,
year,18809,19174,2011-07 / 2012-06,18809,,
year,18444,18808,2010-07 / 2011-06,18444,,
year,18079,18443,2009-07 / 2010-06,18079,,
year,17714,18078,2008-07 / 2009-06,17714,,
year,17348,17713,2007-07 / 2008-06,17348,,
year,16983,17347,2006-07 / 2007-06,16983,,
year,16618,16982,2005-07 / 2006-06,16618,,
year,16253,16617,2004-07 / 2005-06,16253,,
